sat_filter/src/tb/uvc/ssdt/tb/sim_build/ssdt_b2b_waves.vcd
$date
	Mon Nov 10 11:45:11 2025
$end
$version
	Icarus Verilog
$end
$timescale
	1ps
$end
$scope module ssdt_b2b $end
$var wire 4 ! in_data [3:0] $end
$var wire 1 " in_valid $end
$var wire 1 # rst $end
$var parameter 32 $ DATA_W $end
$var reg 1 % clk $end
$var reg 4 & out_data [3:0] $end
$var reg 1 ' out_valid $end
$upscope $end
$enddefinitions $end
$comment Show the parameter values. $end
$dumpall
b100 $
$end
#0
$dumpvars
x'
bx &
0%
z#
0"
b0 !
$end
#2500
1#
1%
#5000
0%
#7500
1%
#10000
0%
#12500
1"
b11 !
0#
1%
#15000
0%
#17500
b1000 !
1%
#20000
0%
#22500
b0 !
1%
#25000
0%
#27500
b1001 !
1%
#30000
0%
#32500
b1 !
1%
#35000
0%
#37500
1%
#37501
0"
b0 !
#40000
0%
#42500
1#
1%
#45000
0%
#47500
1%
#50000
0%
#52500
1"
b1011 !
0#
1%
#55000
0%
#57500
1%
#60000
0%
#62500
b11 !
1%
#65000
0%
#67500
1%
#70000
0%
#72500
b1011 !
1%
#75000
0%
#77500
b110 !
1%
#80000
0%
#82500
b1110 !
1%
#85000
0%
#87500
b1100 !
1%
#90000
0%
#92500
b1000 !
1%
#95000
0%
#97500
b1001 !
1%
#100000
0%
#102500
b1100 !
1%
#105000
0%
#107500
b11 !
1%
#110000
0%
#112500
1%
#112501
0"
b0 !
#115000
0%
#117500
1#
1%
#120000
0%
#122500
1%
#125000
0%
#127500
1"
b1111 !
0#
1%
#130000
0%
#132500
1%
#135000
0%
#137500
b1001 !
1%
#140000
0%
#142500
b11 !
1%
#145000
0%
#147500
b1101 !
1%
#150000
0%
#152500
b1000 !
1%
#155000
0%
#157500
b1011 !
1%
#160000
0%
#162500
b10 !
1%
#165000
0%
#167500
b100 !
1%
#170000
0%
#172500
b10 !
1%
#175000
0%
#177500
b1011 !
1%
#180000
0%
#182500
b11 !
1%
#185000
0%
#187500
b111 !
1%
#190000
0%
#192500
b1001 !
1%
#195000
0%
#197500
b1110 !
1%
#200000
0%
#202500
b110 !
1%
#205000
0%
#207500
b1110 !
1%
#210000
0%
#212500
b11 !
1%
#215000
0%
#217500
b110 !
1%
#220000
0%
#222500
b1111 !
1%
#225000
0%
#227500
b1100 !
1%
#230000
0%
#232500
b1110 !
1%
#235000
0%
#237500
b1101 !
1%
#240000
0%
#242500
b101 !
1%
#245000
0%
#247500
b1 !
1%
#250000
0%
#252500
1%
#255000
0%
#257500
b101 !
1%
#260000
0%
#262500
1%
#265000
0%
#267500
b110 !
1%
#270000
0%
#272500
1%
#275000
0%
#277500
b100 !
1%
#280000
0%
#282500
b1011 !
1%
#285000
0%
#287500
b1001 !
1%
#290000
0%
#292500
b1110 !
1%
#295000
0%
#297500
b1100 !
1%
#300000
0%
#302500
b100 !
1%
#305000
0%
#307500
b1000 !
1%
#310000
0%
#312500
b1011 !
1%
#315000
0%
#317500
b1110 !
1%
#320000
0%
#322500
b1 !
1%
#325000
0%
#327500
b1011 !
1%
#330000
0%
#332500
b1111 !
1%
#335000
0%
#337500
b1000 !
1%
#340000
0%
#342500
b1010 !
1%
#345000
0%
#347500
b1111 !
1%
#350000
0%
#352500
b1001 !
1%
#355000
0%
#357500
b1010 !
1%
#360000
0%
#362500
b1111 !
1%
#365000
0%
#367500
1%
#370000
0%
#372500
b1001 !
1%
#375000
0%
#377500
b1 !
1%
#380000
0%
#382500
b1101 !
1%
#385000
0%
#387500
b1011 !
1%
#390000
0%
#392500
b101 !
1%
#395000
0%
#397500
b11 !
1%
#400000
0%
#402500
b1110 !
1%
#405000
0%
#407500
1%
#410000
0%
#412500
b11 !
1%
#415000
0%
#417500
b110 !
1%
#420000
0%
#422500
b0 !
1%
#425000
0%
#427500
b1001 !
1%
#430000
0%
#432500
b1000 !
1%
#435000
0%
#437500
b111 !
1%
#440000
0%
#442500
b1010 !
1%
#445000
0%
#447500
b1110 !
1%
#450000
0%
#452500
b101 !
1%
#455000
0%
#457500
b100 !
1%
#460000
0%
#462500
b1100 !
1%
#465000
0%
#467500
b101 !
1%
#470000
0%
#472500
b1000 !
1%
#475000
0%
#477500
b111 !
1%
#480000
0%
#482500
b11 !
1%
#485000
0%
#487500
b1101 !
1%
#490000
0%
#492500
b1 !
1%
#495000
0%
#497500
b1111 !
1%
#500000
0%
#502500
b1000 !
1%
#505000
0%
#507500
b111 !
1%
#510000
0%
#512500
b1011 !
1%
#515000
0%
#517500
b1100 !
1%
#520000
0%
#522500
b1011 !
1%
#525000
0%
#527500
b111 !
1%
#530000
0%
#532500
b10 !
1%
#535000
0%
#537500
b0 !
1%
#540000
0%
#542500
b1101 !
1%
#545000
0%
#547500
b1001 !
1%
#550000
0%
#552500
b1110 !
1%
#555000
0%
#557500
b10 !
1%
#560000
0%
#562500
b111 !
1%
#565000
0%
#567500
b1110 !
1%
#570000
0%
#572500
b1111 !
1%
#575000
0%
#577500
b1000 !
1%
#580000
0%
#582500
b1 !
1%
#585000
0%
#587500
b1011 !
1%
#590000
0%
#592500
b0 !
1%
#595000
0%
#597500
b1101 !
1%
#600000
0%
#602500
b1000 !
1%
#605000
0%
#607500
b11 !
1%
#610000
0%
#612500
b1111 !
1%
#615000
0%
#617500
b1000 !
1%
#620000
0%
#622500
b10 !
1%
#625000
0%
#627500
b1 !
1%
#630000
0%
#632500
b100 !
1%
#635000
0%
#637500
b1011 !
1%
#640000
0%
#642500
b111 !
1%
#645000
0%
#647500
b1010 !
1%
#650000
0%
#652500
b1111 !
1%
#655000
0%
#657500
b10 !
1%
#660000
0%
#662500
b1000 !
1%
#665000
0%
#667500
b1101 !
1%
#670000
0%
#672500
1%
#672501
0"
b0 !
#675000
0%
#677500
1#
1%
#680000
0%
#682500
1%
#685000
0%
#687500
1"
b100 !
0#
1%
#690000
0%
#692500
b101 !
1%
#695000
0%
#697500
b11 !
1%
#700000
0%
#702500
b110 !
1%
#705000
0%
#707500
b1111 !
1%
#710000
0%
#712500
b110 !
1%
#715000
0%
#717500
1%
#720000
0%
#722500
b10 !
1%
#725000
0%
#727500
b111 !
1%
#730000
0%
#732500
b1001 !
1%
#735000
0%
#737500
b1010 !
1%
#740000
0%
#742500
b1110 !
1%
#745000
0%
#747500
1%
#750000
0%
#752500
b100 !
1%
#755000
0%
#757500
b11 !
1%
#760000
0%
#762500
b1 !
1%
#765000
0%
#767500
b10 !
1%
#770000
0%
#772500
b1011 !
1%
#775000
0%
#777500
1%
#780000
0%
#782500
b1110 !
1%
#785000
0%
#787500
b1011 !
1%
#790000
0%
#792500
b1001 !
1%
#795000
0%
#797500
b1111 !
1%
#800000
0%
#802500
b1 !
1%
#805000
0%
#807500
b110 !
1%
#810000
0%
#812500
b0 !
1%
