marb/src/tb/sim_build/mem_arb_waves.vcd
$date
	Wed Dec  3 11:49:23 2025
$end
$version
	Icarus Verilog
$end
$timescale
	1ps
$end
$scope module mem_arb_wrapper $end
$scope module mem_arb_i $end
$var wire 1 ! c0_ack $end
$var wire 8 " c0_addr [7:0] $end
$var wire 1 # c0_rd $end
$var wire 1 $ c0_wr $end
$var wire 8 % c0_wr_data [7:0] $end
$var wire 1 & c1_ack $end
$var wire 8 ' c1_addr [7:0] $end
$var wire 1 ( c1_rd $end
$var wire 1 ) c1_wr $end
$var wire 8 * c1_wr_data [7:0] $end
$var wire 1 + c2_ack $end
$var wire 8 , c2_addr [7:0] $end
$var wire 1 - c2_rd $end
$var wire 1 . c2_wr $end
$var wire 8 / c2_wr_data [7:0] $end
$var wire 1 0 clk $end
$var wire 32 1 conf_addr [31:0] $end
$var wire 1 2 conf_enable $end
$var wire 1 3 conf_sel $end
$var wire 4 4 conf_strb [3:0] $end
$var wire 32 5 conf_wdata [31:0] $end
$var wire 1 6 conf_wr $end
$var wire 1 7 m_ack $end
$var wire 8 8 m_rd_data [7:0] $end
$var wire 1 9 rst $end
$var wire 1 : stable $end
$var wire 1 ; dprio_wstrb_single $end
$var wire 4 < dprio_wstrb [3:0] $end
$var wire 32 = ctrl_reg [31:0] $end
$var wire 1 > conf_slverr $end
$var wire 1 ? conf_ready $end
$var wire 32 @ conf_rdata [31:0] $end
$var wire 6 A cif_req [5:0] $end
$var wire 8 B c2_rd_data [7:0] $end
$var wire 8 C c1_rd_data [7:0] $end
$var wire 8 D c0_rd_data [7:0] $end
$var parameter 32 E ADDR_WIDTH $end
$var parameter 32 F CLIENTS_BWIDTH_P $end
$var parameter 32 G DATA_WIDTH $end
$var parameter 32 H MEM_ARB_CLIENTS_P $end
$var parameter 34 I NUM_DPRIO_32b_REG_P $end
$var parameter 66 J NUM_DPRIO_CLIENTS_MULTIPLE_OF_FOUR $end
$var reg 2 K cif_select [1:0] $end
$var reg 8 L m_addr [7:0] $end
$var reg 1 M m_rd $end
$var reg 1 N m_wr $end
$var reg 8 O m_wr_data [7:0] $end
$var reg 2 P prio_list0 [1:0] $end
$var reg 2 Q prio_list1 [1:0] $end
$var reg 2 R prio_list2 [1:0] $end
$var integer 32 S state [31:0] $end
$scope begin genblk1[0] $end
$var parameter 2 T i $end
$upscope $end
$scope begin genblk1[1] $end
$var parameter 2 U i $end
$upscope $end
$scope module apb_ctrl_i $end
$var wire 1 0 clk $end
$var wire 32 V conf_addr [31:0] $end
$var wire 1 2 conf_enable $end
$var wire 1 3 conf_sel $end
$var wire 4 W conf_strb [3:0] $end
$var wire 32 X conf_wdata [31:0] $end
$var wire 1 6 conf_wr $end
$var wire 8 Y dprio0 [7:0] $end
$var wire 8 Z dprio1 [7:0] $end
$var wire 8 [ dprio2 [7:0] $end
$var wire 8 \ dprio3 [7:0] $end
$var wire 1 9 rst $end
$var parameter 32 ] MEM_ARB_CLIENTS_P $end
$var parameter 34 ^ NUM_DPRIO_32b_REG_P $end
$var parameter 66 _ NUM_DPRIO_CLIENTS_MULTIPLE_OF_FOUR $end
$var reg 32 ` conf_rdata [31:0] $end
$var reg 1 ? conf_ready $end
$var reg 1 > conf_slverr $end
$var reg 32 a ctrl [31:0] $end
$var reg 4 b dprio_wstrb [3:0] $end
$var reg 32 c next_ctrl [31:0] $end
$var reg 4 d next_dprio_wstrb [3:0] $end
$var reg 32 e next_rdata [31:0] $end
$var reg 1 f next_ready $end
$var reg 1 g next_slverr $end
$var integer 32 h apb_state [31:0] $end
$scope begin $ivl_for_loop0 $end
$var integer 32 i i [31:0] $end
$upscope $end
$scope begin $ivl_for_loop1 $end
$var integer 32 j i [31:0] $end
$upscope $end
$scope begin $ivl_for_loop2 $end
$var integer 32 k i [31:0] $end
$upscope $end
$upscope $end
$scope module priority_sel_i $end
$var wire 1 0 clk $end
$var wire 32 l ctrl [31:0] $end
$var wire 1 ; dprio_wstrb $end
$var wire 2 m new_client [1:0] $end
$var wire 8 n new_val [7:0] $end
$var wire 2 o prio_list0 [1:0] $end
$var wire 2 p prio_list1 [1:0] $end
$var wire 2 q prio_list2 [1:0] $end
$var wire 1 9 rst $end
$var parameter 32 r CLIENTS_BWIDTH_P $end
$var parameter 32 s MEM_ARB_CLIENTS_P $end
$var reg 2 t count [1:0] $end
$var reg 2 u next_count [1:0] $end
$var reg 1 v sorter_clr $end
$var reg 1 w sorter_en $end
$var integer 32 x sort_state [31:0] $end
$scope begin Single_sorters[1] $end
$var parameter 2 y i $end
$scope module single_sort_i $end
$var wire 1 0 clk $end
$var wire 1 v clr $end
$var wire 1 w enable $end
$var wire 2 z new_client [1:0] $end
$var wire 8 { new_val [7:0] $end
$var wire 1 9 rst $end
$var wire 8 | prev_val [7:0] $end
$var wire 2 } prev_client [1:0] $end
$var parameter 32 ~ CLIENTS_BWIDTH_P $end
$var reg 2 !" current_client [1:0] $end
$var reg 8 "" current_val [7:0] $end
$upscope $end
$upscope $end
$scope begin Single_sorters[2] $end
$var parameter 3 #" i $end
$scope module single_sort_i $end
$var wire 1 0 clk $end
$var wire 1 v clr $end
$var wire 1 w enable $end
$var wire 2 $" new_client [1:0] $end
$var wire 8 %" new_val [7:0] $end
$var wire 2 &" prev_client [1:0] $end
$var wire 8 '" prev_val [7:0] $end
$var wire 1 9 rst $end
$var parameter 32 (" CLIENTS_BWIDTH_P $end
$var reg 2 )" current_client [1:0] $end
$var reg 8 *" current_val [7:0] $end
$upscope $end
$upscope $end
$scope begin generate_static_priority_list[0] $end
$var parameter 2 +" j $end
$upscope $end
$scope begin generate_static_priority_list[1] $end
$var parameter 2 ," j $end
$upscope $end
$scope begin generate_static_priority_list[2] $end
$var parameter 3 -" j $end
$upscope $end
$scope module single_sort_i $end
$var wire 1 0 clk $end
$var wire 1 v clr $end
$var wire 1 w enable $end
$var wire 2 ." new_client [1:0] $end
$var wire 8 /" new_val [7:0] $end
$var wire 2 0" prev_client [1:0] $end
$var wire 8 1" prev_val [7:0] $end
$var wire 1 9 rst $end
$var parameter 32 2" CLIENTS_BWIDTH_P $end
$var reg 2 3" current_client [1:0] $end
$var reg 8 4" current_val [7:0] $end
$upscope $end
$upscope $end
$scope begin $ivl_for_loop3 $end
$var integer 32 5" i [31:0] $end
$upscope $end
$upscope $end
$upscope $end
$enddefinitions $end
$comment Show the parameter values. $end
$dumpall
b10 2"
b10 -"
b1 ,"
b0 +"
b10 ("
b10 #"
b10 ~
b1 y
b11 s
b10 r
b100 _
b1 ^
b11 ]
b1 U
b0 T
b100 J
b1 I
b11 H
b1000 G
b10 F
b1000 E
$end
#0
$dumpvars
b11 5"
bx 4"
bx 3"
bx 1"
b0 0"
bx /"
b0 ."
bx *"
bx )"
bx '"
bx &"
bx %"
b0 $"
bx ""
bx !"
bx }
bx |
bx {
b0 z
b0 x
0w
0v
b0 u
b0 t
b10 q
b1 p
b0 o
bx n
b0 m
bx l
b0 k
b0 j
b0 i
b0 h
0g
0f
b0 e
b0 d
bx c
b0 b
bx a
b0 `
bx \
bx [
bx Z
bx Y
bx X
bx W
bx V
b0 S
bx R
bx Q
bx P
b0 O
0N
0M
b0 L
bx K
b0 D
b0 C
b0 B
b0 A
b0 @
0?
0>
bx =
b0 <
0;
z:
z9
bx 8
07
06
bx 5
bx 4
03
02
bx 1
10
bx /
0.
0-
bx ,
0+
bx *
0)
0(
bx '
0&
bx %
0$
0#
bx "
0!
$end
#2000
00
#4000
b11 5"
b10 R
b1 Q
b0 P
b0 K
10
#6000
00
#8000
10
#10000
00
#12000
10
#14000
00
#16000
b0 c
b0 \
b0 [
b0 Z
b0 n
b0 {
b0 %"
b0 /"
b0 1"
b0 Y
b0 }
b0 3"
b0 |
b0 4"
b0 )"
b0 *"
b0 !"
b0 &"
b0 ""
b0 '"
b0 =
b0 a
b0 l
b100 i
19
10
#18000
00
#20000
b100 i
10
#22000
00
#24000
b100 i
10
#26000
00
#28000
b100 i
10
#30000
00
#32000
b100 i
10
#34000
00
#36000
b100 i
10
#38000
00
#40000
b100 i
10
#42000
00
#44000
b100 i
10
#46000
00
#48000
b100 i
10
#50000
00
#52000
b100 i
10
#54000
00
#56000
b100 i
10
#58000
00
#60000
b100 i
10
#62000
00
#64000
b100 i
10
#66000
00
#68000
b100 i
10
#70000
00
#72000
b100 i
10
#74000
00
#76000
b100 i
10
#78000
00
#80000
b100 i
10
#82000
00
#84000
09
b100 i
10
#86000
00
#88000
b11 5"
b11111110 ,
1-
b11111010 '
1(
b11010 "
b101010 A
1#
10
#90000
00
#92000
b1 k
1f
b0 4
b0 W
b100 1
b100 V
13
10
#94000
00
#96000
12
0f
b1 h
1?
10
#98000
00
#100000
bx 4
bx W
bx 1
bx V
02
03
b1 k
0f
0?
b0 h
10
#102000
00
#104000
b1 j
b1111 d
1f
b0 5
b0 X
b1111 4
b1111 W
b100 1
b100 V
13
16
10
#106000
00
#108000
12
b0 d
0f
1;
b1111 <
b1111 b
1?
b1 h
10
#110000
00
#112000
bx 4
bx W
bx 5
bx X
bx 1
bx V
02
03
06
1v
b0 d
b1 j
0f
b1 x
b0 h
0?
0;
b0 <
b0 b
10
#114000
00
#116000
b1 k
1f
b0 4
b0 W
b0 1
b0 V
13
b1 u
1w
0v
b10 x
10
#118000
00
#120000
12
b10 u
1w
0f
b1 m
b1 z
b1 $"
b1 ."
b1 0"
b1 t
b1 h
1?
10
#122000
00
#124000
bx 4
bx W
bx 1
bx V
02
03
b1 k
0f
b11 u
1w
0?
b0 h
b10 m
b10 z
b10 $"
b10 ."
b10 0"
b10 t
10
#126000
00
#128000
b1 j
1f
b0 5
b0 X
b1111 4
b1111 W
b0 1
b0 V
13
16
b0 u
0w
b11 m
b11 z
b11 $"
b11 ."
b11 0"
b11 t
b0 x
10
#130000
00
#132000
12
0f
1?
b1 h
b0 m
b0 z
b0 $"
b0 ."
b0 0"
b0 t
10
#134000
00
#136000
bx 4
bx W
bx 5
bx X
bx 1
bx V
02
03
06
b1 j
0f
b0 h
0?
10
#138000
00
#140000
b1111 d
b1 j
1f
b111111111011110111101111 5
b111111111011110111101111 X
b1111 4
b1111 W
b100 1
b100 V
13
16
10
#142000
00
#144000
12
b0 d
0f
b1 h
1?
1;
b1111 <
b1111 b
b11111111 [
b10111101 Z
b11101111 n
b11101111 {
b11101111 %"
b11101111 /"
b11101111 1"
b11101111 Y
10
#146000
00
#148000
bx 4
bx W
bx 5
bx X
bx 1
bx V
02
03
06
b0 d
b1 j
0f
1v
0;
b0 <
b0 b
0?
b0 h
b1 x
10
#150000
00
#152000
b1 k
1f
b0 4
b0 W
b0 1
b0 V
13
b1 u
1w
0v
b10 x
10
#154000
00
#156000
12
0f
b10 u
1w
1?
b1 h
b11101111 |
b11101111 4"
b10111101 n
b10111101 {
b10111101 %"
b10111101 /"
b10111101 1"
b1 m
b1 z
b1 $"
b1 ."
b1 0"
b1 t
10
#158000
00
#160000
bx 4
bx W
bx 1
bx V
02
03
b11 u
1w
b1 k
0f
b11111111 n
b11111111 {
b11111111 %"
b11111111 /"
b11111111 1"
b10 m
b10 z
b10 $"
b10 ."
b10 0"
b10 t
b1 !"
b1 &"
b10111101 ""
b10111101 '"
b0 h
0?
10
#162000
00
#164000
b1 j
b11 c
1f
b11 5
b11 X
b1111 4
b1111 W
b0 1
b0 V
13
16
b0 u
0w
b0 !"
b0 &"
b11101111 ""
b11101111 '"
b1 )"
b10111101 *"
b10 }
b10 3"
b11111111 |
b11111111 4"
b0 x
b0 n
b0 {
b0 %"
b0 /"
b0 1"
b11 m
b11 z
b11 $"
b11 ."
b11 0"
b11 t
10
#166000
00
#168000
12
0f
b11101111 n
b11101111 {
b11101111 %"
b11101111 /"
b11101111 1"
b0 m
b0 z
b0 $"
b0 ."
b0 0"
b0 t
b1 h
1?
b11 =
b11 a
b11 l
10
#170000
00
#172000
bx 4
bx W
bx 5
bx X
bx 1
bx V
02
03
06
b1 j
0f
1M
b11010 L
b11 5"
0?
b0 h
b1 q
b0 p
b10 o
b1 S
10
#174000
00
#176000
b11110110 D
1!
b11 5"
b11010 L
1M
b11110110 8
17
b1 R
b0 Q
b10 P
10
#178000
00
#180000
b1011011 "
07
bx 8
b0 D
0!
b11 5"
b0 L
0M
b0 S
10
#182000
00
#184000
1M
b11111110 L
b11 5"
b1 S
b10 K
10
#186000
00
#188000
b111110 B
1+
b11 5"
b11111110 L
1M
b111110 8
17
10
#190000
00
#192000
b110100 /
b111000 ,
1.
07
bx 8
b11010 A
0-
b0 B
0+
b11 5"
b0 L
0M
b0 S
10
#194000
00
#196000
b110100 O
1N
b111000 L
b11 5"
b1 S
10
#198000
00
#200000
1+
b11 5"
b110100 O
b111000 L
1N
17
10
#202000
00
#204000
bx /
b10000110 ,
1-
b101010 A
0.
07
0+
b11 5"
b0 O
b0 L
0N
b0 S
10
#206000
00
#208000
1M
b10000110 L
b11 5"
b1 S
10
#210000
00
#212000
b10101111 B
1+
b11 5"
b10000110 L
1M
b10101111 8
17
10
#214000
00
#216000
b11100010 ,
07
bx 8
b0 B
0+
b11 5"
b0 L
0M
b0 S
10
#218000
00
#220000
1M
b11100010 L
b11 5"
b1 S
10
#222000
00
#224000
b11000001 B
1+
b11 5"
b11100010 L
1M
b11000001 8
17
10
#226000
00
#228000
b1010010 ,
07
bx 8
b0 B
0+
b11 5"
b0 L
0M
b0 S
10
#230000
00
#232000
1M
b1010010 L
b11 5"
b1 S
10
#234000
00
#236000
b11111010 B
1+
b11 5"
b1010010 L
1M
b11111010 8
17
10
#238000
00
#240000
b110001 /
b11011100 ,
1.
b11010 A
0-
07
bx 8
b0 B
0+
b11 5"
b0 L
0M
b0 S
10
#242000
00
#244000
b110001 O
1N
b11011100 L
b11 5"
b1 S
10
#246000
00
#248000
1+
b11 5"
b110001 O
b11011100 L
1N
17
10
#250000
00
#252000
bx /
b10110011 ,
1-
b101010 A
0.
07
0+
b11 5"
b0 O
b0 L
0N
b0 S
10
#254000
00
#256000
1M
b10110011 L
b11 5"
b1 S
10
#258000
00
#260000
b10101110 B
1+
b11 5"
b10110011 L
1M
b10101110 8
17
10
#262000
00
#264000
b10001 ,
07
bx 8
b0 B
0+
b11 5"
b0 L
0M
b0 S
10
#266000
00
#268000
1M
b10001 L
b11 5"
b1 S
10
#270000
00
#272000
b10010101 B
1+
b11 5"
b10001 L
1M
b10010101 8
17
10
#274000
00
#276000
b10011110 ,
07
bx 8
b0 B
0+
b11 5"
b0 L
0M
b0 S
10
#278000
00
#280000
1M
b10011110 L
b11 5"
b1 S
10
#282000
00
#284000
b100100 B
1+
b11 5"
b10011110 L
1M
b100100 8
17
10
#286000
00
#288000
b111011 ,
07
bx 8
b0 B
0+
b11 5"
b0 L
0M
b0 S
10
#290000
00
#292000
1M
b111011 L
b11 5"
b1 S
10
#294000
00
#296000
b1111110 B
1+
b11 5"
b111011 L
1M
b1111110 8
17
10
#298000
00
#300000
b1111111 /
b111010 ,
1.
b11010 A
0-
07
bx 8
b0 B
0+
b11 5"
b0 L
0M
b0 S
10
#302000
00
#304000
b1111111 O
1N
b111010 L
b11 5"
b1 S
10
#306000
00
#308000
1+
b11 5"
b1111111 O
b111010 L
1N
17
10
#310000
00
#312000
b11101000 /
b110001 ,
07
0+
b11 5"
b0 O
b0 L
0N
b0 S
10
#314000
00
#316000
b11101000 O
1N
b110001 L
b11 5"
b1 S
10
#318000
00
#320000
1+
b11 5"
b11101000 O
b110001 L
1N
17
10
#322000
00
#324000
b10011010 /
b100 ,
07
0+
b11 5"
b0 O
b0 L
0N
b0 S
10
#326000
00
#328000
b10011010 O
1N
b100 L
b11 5"
b1 S
10
#330000
00
#332000
1+
b11 5"
b10011010 O
b100 L
1N
17
10
#334000
00
#336000
bx /
b1001110 ,
1-
b101010 A
0.
07
0+
b11 5"
b0 O
b0 L
0N
b0 S
10
#338000
00
#340000
1M
b1001110 L
b11 5"
b1 S
10
#342000
00
#344000
b10000111 B
1+
b11 5"
b1001110 L
1M
b10000111 8
17
10
#346000
00
#348000
b1011001 ,
07
bx 8
b0 B
0+
b11 5"
b0 L
0M
b0 S
10
#350000
00
#352000
1M
b1011001 L
b11 5"
b1 S
10
#354000
00
#356000
b110001 B
1+
b11 5"
b1011001 L
1M
b110001 8
17
10
#358000
00
#360000
b1100111 /
b10100001 ,
1.
b11010 A
0-
07
bx 8
b0 B
0+
b11 5"
b0 L
0M
b0 S
10
#362000
00
#364000
b1100111 O
1N
b10100001 L
b11 5"
b1 S
10
#366000
00
#368000
1+
b11 5"
b1100111 O
b10100001 L
1N
17
10
#370000
00
#372000
bx /
b1001010 ,
1-
b101010 A
0.
07
0+
b11 5"
b0 O
b0 L
0N
b0 S
10
#374000
00
#376000
1M
b1001010 L
b11 5"
b1 S
10
#378000
00
#380000
b1011110 B
1+
b11 5"
b1001010 L
1M
b1011110 8
17
10
#382000
00
#384000
b10011011 ,
07
bx 8
b0 B
0+
b11 5"
b0 L
0M
b0 S
10
#386000
00
#388000
1M
b10011011 L
b11 5"
b1 S
10
#390000
00
#392000
b11100110 B
1+
b11 5"
b10011011 L
1M
b11100110 8
17
10
#394000
00
#396000
bx ,
b1010 A
0-
07
bx 8
b0 B
0+
b11 5"
b0 L
0M
b0 S
10
#398000
00
#400000
1M
b1011011 L
b11 5"
b1 S
b0 K
10
#402000
00
#404000
b10000000 D
1!
b11 5"
b1011011 L
1M
b10000000 8
17
10
#406000
00
#408000
b1100101 "
07
bx 8
b0 D
0!
b11 5"
b0 L
0M
b0 S
10
#410000
00
#412000
1M
b1100101 L
b11 5"
b1 S
10
#414000
00
#416000
b11000010 D
1!
b11 5"
b1100101 L
1M
b11000010 8
17
10
#418000
00
#420000
b1101101 %
b1001 "
1$
b1001 A
0#
07
bx 8
b0 D
0!
b11 5"
b0 L
0M
b0 S
10
#422000
00
#424000
b1101101 O
1N
b1001 L
b11 5"
b1 S
10
#426000
00
#428000
1!
b11 5"
b1101101 O
b1001 L
1N
17
10
#430000
00
#432000
bx %
b1101011 "
1#
b1010 A
0$
07
0!
b11 5"
b0 O
b0 L
0N
b0 S
10
#434000
00
#436000
1M
b1101011 L
b11 5"
b1 S
10
#438000
00
#440000
b11101 D
1!
b11 5"
b1101011 L
1M
b11101 8
17
10
#442000
00
#444000
b10110001 "
07
bx 8
b0 D
0!
b11 5"
b0 L
0M
b0 S
10
#446000
00
#448000
1M
b10110001 L
b11 5"
b1 S
10
#450000
00
#452000
b11101000 D
1!
b11 5"
b10110001 L
1M
b11101000 8
17
10
#454000
00
#456000
b110110 "
07
bx 8
b0 D
0!
b11 5"
b0 L
0M
b0 S
10
#458000
00
#460000
1M
b110110 L
b11 5"
b1 S
10
#462000
00
#464000
b11111010 D
1!
b11 5"
b110110 L
1M
b11111010 8
17
10
#466000
00
#468000
b111001 "
07
bx 8
b0 D
0!
b11 5"
b0 L
0M
b0 S
10
#470000
00
#472000
1M
b111001 L
b11 5"
b1 S
10
#474000
00
#476000
b10101110 D
1!
b11 5"
b111001 L
1M
b10101110 8
17
10
#478000
00
#480000
b111110 "
07
bx 8
b0 D
0!
b11 5"
b0 L
0M
b0 S
10
#482000
00
#484000
1M
b111110 L
b11 5"
b1 S
10
#486000
00
#488000
b1100000 D
1!
b11 5"
b111110 L
1M
b1100000 8
17
10
#490000
00
#492000
b100111 %
b1001010 "
1$
b1001 A
0#
07
bx 8
b0 D
0!
b11 5"
b0 L
0M
b0 S
10
#494000
00
#496000
b100111 O
1N
b1001010 L
b11 5"
b1 S
10
#498000
00
#500000
1!
b11 5"
b100111 O
b1001010 L
1N
17
10
#502000
00
#504000
bx %
b1 "
1#
b1010 A
0$
07
0!
b11 5"
b0 O
b0 L
0N
b0 S
10
#506000
00
#508000
1M
b1 L
b11 5"
b1 S
10
#510000
00
#512000
b110011 D
1!
b11 5"
b1 L
1M
b110011 8
17
10
#514000
00
#516000
bx "
b1000 A
0#
07
bx 8
b0 D
0!
b11 5"
b0 L
0M
b0 S
10
#518000
00
#520000
1M
b11111010 L
b11 5"
b1 S
b1 K
10
#522000
00
#524000
b101000 C
1&
b11 5"
b11111010 L
1M
b101000 8
17
10
#526000
00
#528000
b10010110 *
b110100 '
1)
07
bx 8
b100 A
0(
b0 C
0&
b11 5"
b0 L
0M
b0 S
10
#530000
00
#532000
b10010110 O
1N
b110100 L
b11 5"
b1 S
10
#534000
00
#536000
1&
b11 5"
b10010110 O
b110100 L
1N
17
10
#538000
00
#540000
bx *
b1101010 '
1(
b1000 A
0)
07
0&
b11 5"
b0 O
b0 L
0N
b0 S
10
#542000
00
#544000
1M
b1101010 L
b11 5"
b1 S
10
#546000
00
#548000
b11111101 C
1&
b11 5"
b1101010 L
1M
b11111101 8
17
10
#550000
00
#552000
b0 *
b10100011 '
1)
b100 A
0(
07
bx 8
b0 C
0&
b11 5"
b0 L
0M
b0 S
10
#554000
00
#556000
1N
b10100011 L
b11 5"
b1 S
10
#558000
00
#560000
1&
b11 5"
b10100011 L
1N
17
10
#562000
00
#564000
b10101000 *
b10001 '
07
0&
b11 5"
b0 L
0N
b0 S
10
#566000
00
#568000
b10101000 O
1N
b10001 L
b11 5"
b1 S
10
#570000
00
#572000
1&
b11 5"
b10101000 O
b10001 L
1N
17
10
#574000
00
#576000
b11110100 *
b11010100 '
07
0&
b11 5"
b0 O
b0 L
0N
b0 S
10
#578000
00
#580000
b11110100 O
1N
b11010100 L
b11 5"
b1 S
10
#582000
00
#584000
1&
b11 5"
b11110100 O
b11010100 L
1N
17
10
#586000
00
#588000
b1110011 *
b10001110 '
07
0&
b11 5"
b0 O
b0 L
0N
b0 S
10
#590000
00
#592000
b1110011 O
1N
b10001110 L
b11 5"
b1 S
10
#594000
00
#596000
1&
b11 5"
b1110011 O
b10001110 L
1N
17
10
#598000
00
#600000
b111110 *
b10010 '
07
0&
b11 5"
b0 O
b0 L
0N
b0 S
10
#602000
00
#604000
b111110 O
1N
b10010 L
b11 5"
b1 S
10
#606000
00
#608000
1&
b11 5"
b111110 O
b10010 L
1N
17
10
#610000
00
#612000
bx *
b10000100 '
1(
b1000 A
0)
07
0&
b11 5"
b0 O
b0 L
0N
b0 S
10
#614000
00
#616000
1M
b10000100 L
b11 5"
b1 S
10
#618000
00
#620000
b11110 C
1&
b11 5"
b10000100 L
1M
b11110 8
17
10
#622000
00
#624000
b111 '
07
bx 8
b0 C
0&
b11 5"
b0 L
0M
b0 S
10
#626000
00
#628000
1M
b111 L
b11 5"
b1 S
10
#630000
00
#632000
b11111100 C
1&
b11 5"
b111 L
1M
b11111100 8
17
10
#634000
00
#636000
b1110001 '
07
bx 8
b0 C
0&
b11 5"
b0 L
0M
b0 S
10
#638000
00
#640000
1M
b1110001 L
b11 5"
b1 S
10
#642000
00
#644000
b11111100 C
1&
b11 5"
b1110001 L
1M
b11111100 8
17
10
#646000
00
#648000
b101001 '
07
bx 8
b0 C
0&
b11 5"
b0 L
0M
b0 S
10
#650000
00
#652000
1M
b101001 L
b11 5"
b1 S
10
#654000
00
#656000
b10110101 C
1&
b11 5"
b101001 L
1M
b10110101 8
17
10
#658000
00
#660000
b11010111 '
07
bx 8
b0 C
0&
b11 5"
b0 L
0M
b0 S
10
#662000
00
#664000
1M
b11010111 L
b11 5"
b1 S
10
#666000
00
#668000
b1110001 C
1&
b11 5"
b11010111 L
1M
b1110001 8
17
10
#670000
00
#672000
b10111011 '
07
bx 8
b0 C
0&
b11 5"
b0 L
0M
b0 S
10
#674000
00
#676000
1M
b10111011 L
b11 5"
b1 S
10
#678000
00
#680000
b1011000 C
1&
b11 5"
b10111011 L
1M
b1011000 8
17
10
#682000
00
#684000
b1110000 *
b11110010 '
1)
b100 A
0(
07
bx 8
b0 C
0&
b11 5"
b0 L
0M
b0 S
10
#686000
00
#688000
b1110000 O
1N
b11110010 L
b11 5"
b1 S
10
#690000
00
#692000
1&
b11 5"
b1110000 O
b11110010 L
1N
17
10
#694000
00
#696000
bx *
b11101010 '
1(
b1000 A
0)
07
0&
b11 5"
b0 O
b0 L
0N
b0 S
10
#698000
00
#700000
1M
b11101010 L
b11 5"
b1 S
10
#702000
00
#704000
b11000010 C
1&
b11 5"
b11101010 L
1M
b11000010 8
17
10
#706000
00
#708000
b1001000 *
b1100101 '
1)
b100 A
0(
07
bx 8
b0 C
0&
b11 5"
b0 L
0M
b0 S
10
#710000
00
#712000
b1001000 O
1N
b1100101 L
b11 5"
b1 S
10
#714000
00
#716000
1&
b11 5"
b1001000 O
b1100101 L
1N
17
10
#718000
00
#720000
bx *
b10101110 '
1(
b1000 A
0)
07
0&
b11 5"
b0 O
b0 L
0N
b0 S
10
#722000
00
#724000
1M
b10101110 L
b11 5"
b1 S
10
#726000
00
#728000
b11101001 C
1&
b11 5"
b10101110 L
1M
b11101001 8
17
10
#730000
00
#732000
b10110101 *
b110 '
1)
b100 A
0(
07
bx 8
b0 C
0&
b11 5"
b0 L
0M
b0 S
10
#734000
00
#736000
b10110101 O
1N
b110 L
b11 5"
b1 S
10
#738000
00
#740000
1&
b11 5"
b10110101 O
b110 L
1N
17
10
#742000
00
#744000
bx *
b1011010 '
1(
b1000 A
0)
07
0&
b11 5"
b0 O
b0 L
0N
b0 S
10
#746000
00
#748000
1M
b1011010 L
b11 5"
b1 S
10
#750000
00
#752000
b10 C
1&
b11 5"
b1011010 L
1M
b10 8
17
10
#754000
00
#756000
b111010 *
b10110 '
1)
b100 A
0(
07
bx 8
b0 C
0&
b11 5"
b0 L
0M
b0 S
10
#758000
00
#760000
b111010 O
1N
b10110 L
b11 5"
b1 S
10
#762000
00
#764000
1&
b11 5"
b111010 O
b10110 L
1N
17
10
#766000
00
#768000
bx *
b1001100 '
1(
b1000 A
0)
07
0&
b11 5"
b0 O
b0 L
0N
b0 S
10
#770000
00
#772000
1M
b1001100 L
b11 5"
b1 S
10
#774000
00
#776000
b1010001 C
1&
b11 5"
b1001100 L
1M
b1010001 8
17
10
#778000
00
#780000
b10010101 *
b10100 '
1)
b100 A
0(
07
bx 8
b0 C
0&
b11 5"
b0 L
0M
b0 S
10
#782000
00
#784000
b10010101 O
1N
b10100 L
b11 5"
b1 S
10
#786000
00
#788000
1&
b11 5"
b10010101 O
b10100 L
1N
17
10
#790000
00
#792000
b110101 *
b10101000 '
07
0&
b11 5"
b0 O
b0 L
0N
b0 S
10
#794000
00
#796000
b110101 O
1N
b10101000 L
b11 5"
b1 S
10
#798000
00
#800000
1&
b11 5"
b110101 O
b10101000 L
1N
17
10
#802000
00
#804000
bx *
b10100011 '
1(
b1000 A
0)
07
0&
b11 5"
b0 O
b0 L
0N
b0 S
10
#806000
00
#808000
1M
b10100011 L
b11 5"
b1 S
10
#810000
00
#812000
b111010 C
1&
b11 5"
b10100011 L
1M
b111010 8
17
10
#814000
00
#816000
b11111110 '
07
bx 8
b0 C
0&
b11 5"
b0 L
0M
b0 S
10
#818000
00
#820000
1M
b11111110 L
b11 5"
b1 S
10
#822000
00
#824000
b11000000 C
1&
b11 5"
b11111110 L
1M
b11000000 8
17
10
#826000
00
#828000
b11100101 *
b11110000 '
1)
b100 A
0(
07
bx 8
b0 C
0&
b11 5"
b0 L
0M
b0 S
10
#830000
00
#832000
b11100101 O
1N
b11110000 L
b11 5"
b1 S
10
#834000
00
#836000
1&
b11 5"
b11100101 O
b11110000 L
1N
17
10
#838000
00
#840000
b11011001 *
b1001010 '
07
0&
b11 5"
b0 O
b0 L
0N
b0 S
10
#842000
00
#844000
b11011001 O
1N
b1001010 L
b11 5"
b1 S
10
#846000
00
#848000
1&
b11 5"
b11011001 O
b1001010 L
1N
17
10
#850000
00
#852000
bx *
b11000010 '
1(
b1000 A
0)
07
0&
b11 5"
b0 O
b0 L
0N
b0 S
10
#854000
00
#856000
1M
b11000010 L
b11 5"
b1 S
10
#858000
00
#860000
b11111101 C
1&
b11 5"
b11000010 L
1M
b11111101 8
17
10
#862000
00
#864000
b11001011 *
b11011001 '
1)
b100 A
0(
07
bx 8
b0 C
0&
b11 5"
b0 L
0M
b0 S
10
#866000
00
#868000
b11001011 O
1N
b11011001 L
b11 5"
b1 S
10
#870000
00
#872000
1&
b11 5"
b11001011 O
b11011001 L
1N
17
10
#874000
00
#876000
bx *
b110010 '
1(
b1000 A
0)
07
0&
b11 5"
b0 O
b0 L
0N
b0 S
10
#878000
00
#880000
1M
b110010 L
b11 5"
b1 S
10
#882000
00
#884000
b11100111 C
1&
b11 5"
b110010 L
1M
b11100111 8
17
10
#886000
00
#888000
b10110010 *
b10011011 '
1)
b100 A
0(
07
bx 8
b0 C
0&
b11 5"
b0 L
0M
b0 S
10
#890000
00
#892000
b10110010 O
1N
b10011011 L
b11 5"
b1 S
10
#894000
00
#896000
1&
b11 5"
b10110010 O
b10011011 L
1N
17
10
#898000
00
#900000
bx *
b10010 '
1(
b1000 A
0)
07
0&
b11 5"
b0 O
b0 L
0N
b0 S
10
#902000
00
#904000
1M
b10010 L
b11 5"
b1 S
10
#906000
00
#908000
b110100 C
1&
b11 5"
b10010 L
1M
b110100 8
17
10
#910000
00
#912000
b10100110 *
b10100011 '
1)
b100 A
0(
07
bx 8
b0 C
0&
b11 5"
b0 L
0M
b0 S
10
#914000
00
#916000
b10100110 O
1N
b10100011 L
b11 5"
b1 S
10
#918000
00
#920000
1&
b11 5"
b10100110 O
b10100011 L
1N
17
10
#922000
00
#924000
b101000 *
b11011001 '
07
0&
b11 5"
b0 O
b0 L
0N
b0 S
10
#926000
00
#928000
b101000 O
1N
b11011001 L
b11 5"
b1 S
10
#930000
00
#932000
1&
b11 5"
b101000 O
b11011001 L
1N
17
10
#934000
00
#936000
bx *
b10011110 '
1(
b1000 A
0)
07
0&
b11 5"
b0 O
b0 L
0N
b0 S
10
#938000
00
