summer/src/tb/uvc/ssdt/tb/sim_build/ssdt_b2b_waves.vcd
$date
	Mon Sep 29 21:02:20 2025
$end
$version
	Icarus Verilog
$end
$timescale
	1ps
$end
$scope module ssdt_b2b $end
$var wire 4 ! in_data [3:0] $end
$var wire 1 " in_valid $end
$var wire 1 # rst $end
$var reg 1 $ clk $end
$var reg 4 % out_data [3:0] $end
$var reg 1 & out_valid $end
$upscope $end
$enddefinitions $end
#0
$dumpvars
x&
bx %
0$
z#
0"
b0 !
$end
#2500
1#
1$
#5000
0$
#7500
1$
#10000
0$
#12500
1"
b1 !
0#
1$
#15000
0$
#17500
b1101 !
1$
#20000
0$
#22500
b1010 !
1$
#25000
0$
#27500
1$
#30000
0$
#32500
b1001 !
1$
#35000
0$
#37500
1$
#37501
0"
b0 !
#40000
0$
#42500
1#
1$
#45000
0$
#47500
1$
#50000
0$
#52500
1"
b1111 !
0#
1$
#55000
0$
#57500
b1101 !
1$
#60000
0$
#62500
b110 !
1$
#65000
0$
#67500
b1 !
1$
#70000
0$
#72500
b1011 !
1$
#75000
0$
#77500
b101 !
1$
#80000
0$
#82500
b1110 !
1$
#85000
0$
#87500
b110 !
1$
#90000
0$
#92500
b1101 !
1$
#95000
0$
#97500
b1111 !
1$
#100000
0$
#102500
b1010 !
1$
#105000
0$
#107500
1$
#107501
0"
b0 !
#110000
0$
#112500
1#
1$
#115000
0$
#117500
1$
#120000
0$
#122500
1"
b10 !
0#
1$
#125000
0$
#127500
b0 !
1$
#130000
0$
#132500
b111 !
1$
#135000
0$
#137500
b1101 !
1$
#140000
0$
#142500
b1111 !
1$
#145000
0$
#147500
b1000 !
1$
#150000
0$
#152500
b1100 !
1$
#155000
0$
#157500
b111 !
1$
#160000
0$
#162500
b1001 !
1$
#165000
0$
#167500
b1000 !
1$
#170000
0$
#172500
b1010 !
1$
#175000
0$
#177500
b1101 !
1$
#180000
0$
#182500
b0 !
1$
#185000
0$
#187500
b110 !
1$
#190000
0$
#192500
b0 !
1$
#195000
0$
#197500
b1101 !
1$
#200000
0$
#202500
b0 !
1$
#205000
0$
#207500
b1111 !
1$
#210000
0$
#212500
b1011 !
1$
#215000
0$
#217500
1$
#220000
0$
#222500
b1 !
1$
#225000
0$
#227500
b110 !
1$
#230000
0$
#232500
b1100 !
1$
#235000
0$
#237500
b111 !
1$
#240000
0$
#242500
b1111 !
1$
#245000
0$
#247500
b1001 !
1$
#250000
0$
#252500
b0 !
1$
#255000
0$
#257500
b1010 !
1$
#260000
0$
#262500
b110 !
1$
#265000
0$
#267500
b1011 !
1$
#270000
0$
#272500
b10 !
1$
#275000
0$
#277500
b100 !
1$
#280000
0$
#282500
1$
#285000
0$
#287500
b11 !
1$
#290000
0$
#292500
b1011 !
1$
#295000
0$
#297500
b100 !
1$
#300000
0$
#302500
b0 !
1$
#305000
0$
#307500
b1011 !
1$
#310000
0$
#312500
b1001 !
1$
#315000
0$
#317500
b1100 !
1$
#320000
0$
#322500
b111 !
1$
#325000
0$
#327500
b1111 !
1$
#330000
0$
#332500
b1001 !
1$
#335000
0$
#337500
b1000 !
1$
#340000
0$
#342500
b1100 !
1$
#345000
0$
#347500
b110 !
1$
#350000
0$
#352500
b1 !
1$
#355000
0$
#357500
b1000 !
1$
#360000
0$
#362500
b110 !
1$
#365000
0$
#367500
b1011 !
1$
#370000
0$
#372500
b1110 !
1$
#375000
0$
#377500
b1111 !
1$
#380000
0$
#382500
b1010 !
1$
#385000
0$
#387500
b1011 !
1$
#390000
0$
#392500
b0 !
1$
#395000
0$
#397500
b1 !
1$
#400000
0$
#402500
1$
#405000
0$
#407500
b1001 !
1$
#410000
0$
#412500
b1110 !
1$
#415000
0$
#417500
b1010 !
1$
#420000
0$
#422500
b1001 !
1$
#425000
0$
#427500
b1011 !
1$
#430000
0$
#432500
b111 !
1$
#435000
0$
#437500
b10 !
1$
#440000
0$
#442500
b110 !
1$
#445000
0$
#447500
b1011 !
1$
#450000
0$
#452500
1$
#455000
0$
#457500
b1010 !
1$
#460000
0$
#462500
b1110 !
1$
#465000
0$
#467500
b1000 !
1$
#470000
0$
#472500
b1001 !
1$
#475000
0$
#477500
b1 !
1$
#480000
0$
#482500
b1110 !
1$
#485000
0$
#487500
b100 !
1$
#490000
0$
#492500
b1011 !
1$
#495000
0$
#497500
b101 !
1$
#500000
0$
#502500
b0 !
1$
#505000
0$
#507500
b1 !
1$
#510000
0$
#512500
b101 !
1$
#515000
0$
#517500
b1011 !
1$
#520000
0$
#522500
b1110 !
1$
#525000
0$
#527500
b100 !
1$
#530000
0$
#532500
b1110 !
1$
#535000
0$
#537500
b1011 !
1$
#540000
0$
#542500
b1110 !
1$
#545000
0$
#547500
b1011 !
1$
#550000
0$
#552500
b0 !
1$
#555000
0$
#557500
1$
#560000
0$
#562500
b1010 !
1$
#565000
0$
#567500
b1011 !
1$
#570000
0$
#572500
b1100 !
1$
#575000
0$
#577500
b1111 !
1$
#580000
0$
#582500
1$
#585000
0$
#587500
b1011 !
1$
#590000
0$
#592500
b110 !
1$
#595000
0$
#597500
b0 !
1$
#600000
0$
#602500
b1 !
1$
#605000
0$
#607500
b10 !
1$
#610000
0$
#612500
1$
#615000
0$
#617500
b110 !
1$
#620000
0$
#622500
b101 !
1$
#625000
0$
#627500
b1100 !
1$
#630000
0$
#632500
b110 !
1$
#635000
0$
#637500
b1101 !
1$
#640000
0$
#642500
1$
#645000
0$
#647500
b101 !
1$
#650000
0$
#652500
b1000 !
1$
#655000
0$
#657500
1$
#660000
0$
#662500
b101 !
1$
#665000
0$
#667500
1$
#670000
0$
#672500
1$
#675000
0$
#677500
b100 !
1$
#680000
0$
#682500
b1111 !
1$
#685000
0$
#687500
b11 !
1$
#690000
0$
#692500
b1011 !
1$
#695000
0$
#697500
b11 !
1$
#700000
0$
#702500
b100 !
1$
#705000
0$
#707500
b110 !
1$
#710000
0$
#712500
b111 !
1$
#715000
0$
#717500
b1011 !
1$
#720000
0$
#722500
b1001 !
1$
#725000
0$
#727500
b11 !
1$
#730000
0$
#732500
b1000 !
1$
#735000
0$
#737500
b1 !
1$
#740000
0$
#742500
b1001 !
1$
#745000
0$
#747500
b1111 !
1$
#750000
0$
#752500
b1001 !
1$
#755000
0$
#757500
b1 !
1$
#760000
0$
#762500
b1001 !
1$
#765000
0$
#767500
b101 !
1$
#770000
0$
#772500
b1101 !
1$
#775000
0$
#777500
b101 !
1$
#780000
0$
#782500
b0 !
1$
#785000
0$
#787500
b100 !
1$
#790000
0$
#792500
b0 !
1$
#795000
0$
#797500
1$
#800000
0$
#802500
b11 !
1$
#805000
0$
#807500
b1100 !
1$
#810000
0$
#812500
b0 !
1$
#815000
0$
#817500
b1100 !
1$
#820000
0$
#822500
b110 !
1$
#825000
0$
#827500
b101 !
1$
#830000
0$
#832500
b0 !
1$
#835000
0$
#837500
b1001 !
1$
#840000
0$
#842500
b1010 !
1$
#845000
0$
#847500
b1 !
1$
#850000
0$
#852500
b1110 !
1$
#855000
0$
#857500
b10 !
1$
#860000
0$
#862500
b1011 !
1$
#865000
0$
#867500
b11 !
1$
#870000
0$
#872500
b10 !
1$
#875000
0$
#877500
b1110 !
1$
#880000
0$
#882500
b10 !
1$
#885000
0$
#887500
b1011 !
1$
#890000
0$
#892500
b1001 !
1$
#895000
0$
#897500
b10 !
1$
#900000
0$
#902500
b1100 !
1$
#905000
0$
#907500
b0 !
1$
#910000
0$
#912500
b1000 !
1$
#915000
0$
#917500
b111 !
1$
#920000
0$
#922500
b1100 !
1$
#925000
0$
#927500
b1 !
1$
#930000
0$
#932500
b110 !
1$
#935000
0$
#937500
b1111 !
1$
#940000
0$
#942500
b1100 !
1$
#945000
0$
#947500
b111 !
1$
#950000
0$
#952500
b1010 !
1$
#955000
0$
#957500
b1101 !
1$
#960000
0$
#962500
b1011 !
1$
#965000
0$
#967500
b111 !
1$
#970000
0$
#972500
b101 !
1$
#975000
0$
#977500
b1011 !
1$
#980000
0$
#982500
b1 !
1$
#985000
0$
#987500
b101 !
1$
#990000
0$
#992500
b1101 !
1$
#995000
0$
#997500
b1000 !
1$
#1000000
0$
#1002500
b110 !
1$
#1005000
0$
#1007500
b1111 !
1$
#1010000
0$
#1012500
b1010 !
1$
#1015000
0$
#1017500
b0 !
1$
#1020000
0$
#1022500
b100 !
1$
#1025000
0$
#1027500
b1110 !
1$
#1030000
0$
#1032500
b1111 !
1$
#1035000
0$
#1037500
b1010 !
1$
#1040000
0$
#1042500
b1110 !
1$
#1045000
0$
#1047500
b101 !
1$
#1050000
0$
#1052500
1$
#1052501
0"
b0 !
#1055000
0$
#1057500
1#
1$
#1060000
0$
#1062500
1$
#1065000
0$
#1067500
1"
b1001 !
0#
1$
#1070000
0$
#1072500
b1111 !
1$
#1075000
0$
#1077500
b1010 !
1$
#1080000
0$
#1082500
b1111 !
1$
#1085000
0$
#1087500
b1010 !
1$
#1090000
0$
#1092500
b101 !
1$
#1095000
0$
#1097500
b1001 !
1$
#1100000
0$
#1102500
b101 !
1$
#1105000
0$
#1107500
b11 !
1$
#1110000
0$
#1112500
b1110 !
1$
#1115000
0$
#1117500
b1101 !
1$
#1120000
0$
#1122500
b1110 !
1$
#1125000
0$
#1127500
b110 !
1$
#1130000
0$
#1132500
b10 !
1$
#1135000
0$
#1137500
b101 !
1$
#1140000
0$
#1142500
b1000 !
1$
#1145000
0$
#1147500
b1001 !
1$
#1150000
0$
#1152500
b101 !
1$
#1155000
0$
#1157500
b1101 !
1$
#1160000
0$
#1162500
b100 !
1$
#1165000
0$
#1167500
b1110 !
1$
#1170000
0$
#1172500
b100 !
1$
#1175000
0$
#1177500
b101 !
1$
#1180000
0$
#1182500
b1101 !
1$
